%YAML 1.1
%TAG !u! tag:unity3d.com,2011:
--- !u!114 &11400000
MonoBehaviour:
  m_ObjectHideFlags: 0
  m_CorrespondingSourceObject: {fileID: 0}
  m_PrefabInstance: {fileID: 0}
  m_PrefabAsset: {fileID: 0}
  m_GameObject: {fileID: 0}
  m_Enabled: 1
  m_EditorHideFlags: 0
  m_Script: {fileID: 11500000, guid: 237f6e8e450239a4fb663753accaea18, type: 3}
  m_Name: Inventory
  m_EditorClassIdentifier: 
  rock:
    name: Rock
    quantity: 39
    description: None
  wood:
    name: Wood
    quantity: 18
    description: None
  doll:
    name: 
    quantity: 0
    description: None
  BlueFlower:
    name: Flower
    quantity: 8
    description: smells funky
  Ball:
    name: Ball
    quantity: 0
    description: Kid want ball
